Acquisition
…
 works_info_tbl <-
  gutenberg_metadata |>
    filter(gutenberg_author_id %in% author_info_tbl$gutenberg_author_id) |> 
  # Filter all the texts in English
  filter(language == "en") |> 
  # Make sure all the files have text in it
  filter(has_text) |>
  filter(rights == "Public domain in the USA.") |>
    arrange(author) # arrange by authors 

# Print the table
works_info_tbl

# A tibble: 169 × 8
   gutenberg_id title    author gutenberg_author_id language gutenberg_bookshelf
          <int> <chr>    <chr>                <int> <chr>    <chr>              
 1          105 "Persua… Auste…                  68 en       ""                 
 2          121 "Northa… Auste…                  68 en       "Gothic Fiction"   
 3          141 "Mansfi… Auste…                  68 en       ""                 
 4          158 "Emma"   Auste…                  68 en       ""                 
 5          946 "Lady S… Auste…                  68 en       ""                 
 6         1212 "Love a… Auste…                  68 en       ""                 
 7         1342 "Pride … Auste…                  68 en       "Best Books Ever L…
 8        19839 "Emma"   Auste…                  68 en       ""                 
 9        21839 "Sense … Auste…                  68 en       ""                 
10        31100 "The Co… Auste…                  68 en       ""                 
# ℹ 159 more rows
# ℹ 2 more variables: rights <chr>, has_text <lgl>

Last but not least, I want to run a quick test to make sure everything works in the way that I want, before writing them into a csv file and store them in my data file:

#|lable: download files 
works_ca_sample<- 
  gutenberg_download(gutenberg_id = works_info_tbl$gutenberg_id[1:5],
    meta_field = c("title", "author", "gutenberg_id"))

Determining mirror for Project Gutenberg from https://www.gutenberg.org/robot/harvest

Using mirror http://aleph.gutenberg.org

works_ca_sample

# A tibble: 51,050 × 4
   gutenberg_id text             title      author      
          <int> <chr>            <chr>      <chr>       
 1          105 "Persuasion"     Persuasion Austen, Jane
 2          105 ""               Persuasion Austen, Jane
 3          105 ""               Persuasion Austen, Jane
 4          105 "by Jane Austen" Persuasion Austen, Jane
 5          105 ""               Persuasion Austen, Jane
 6          105 "(1818)"         Persuasion Austen, Jane
 7          105 ""               Persuasion Austen, Jane
 8          105 ""               Persuasion Austen, Jane
 9          105 ""               Persuasion Austen, Jane
10          105 ""               Persuasion Austen, Jane
# ℹ 51,040 more rows
…
